…
The dataset contains data on homicides in 50 major U.S. cities,
including the reported date, the identity of the suspect, the location
and the status of the case. There are 52179 rows and 12 columns.

``` r
homicide_df = homicide_df |>
  mutate(city_state = str_c(city, ", ", state)) 

homicide_df |>
  group_by(city_state) |>
  summarize(total_homicides = n())
```

    ## # A tibble: 51 × 2
    ##    city_state      total_homicides
    ##    <chr>                     <int>
    ##  1 Albuquerque, NM             378
    ##  2 Atlanta, GA                 973
    ##  3 Baltimore, MD              2827
    ##  4 Baton Rouge, LA             424
    ##  5 Birmingham, AL              800
    ##  6 Boston, MA                  614
    ##  7 Buffalo, NY                 521
    ##  8 Charlotte, NC               687
    ##  9 Chicago, IL                5535
    ## 10 Cincinnati, OH              694
    ## # ℹ 41 more rows

``` r
homicide_df |>
  filter(disposition %in% c("Closed without arrest", "Open/No arrest")) |>
  group_by(city_state) |>
  summarize(unsolved_homicides = n())
```

    ## # A tibble: 50 × 2
    ##    city_state      unsolved_homicides
    ##    <chr>                        <int>
    ##  1 Albuquerque, NM                146
    ##  2 Atlanta, GA                    373
    ##  3 Baltimore, MD                 1825
    ##  4 Baton Rouge, LA                196
    ##  5 Birmingham, AL                 347
    ##  6 Boston, MA                     310
    ##  7 Buffalo, NY                    319
    ##  8 Charlotte, NC                  206
    ##  9 Chicago, IL                   4073
    ## 10 Cincinnati, OH                 309
    ## # ℹ 40 more rows
…
city_test = homicide_df |>
  mutate(unsolved = disposition %in% c("Closed without arrest", "Open/No arrest")) |>
  group_by(city_state) |>
  summarize(
    total_homicides = n(),
    unsolved_homicides = sum(unsolved),
    .groups = "drop"
  ) |>
  mutate(test_summary = map2(unsolved_homicides, total_homicides, run_prop_test)) |>
  unnest(test_summary)

city_test
```

    ## # A tibble: 51 × 6
    ##    city_state     total_homicides unsolved_homicides estimate conf.low conf.high
    ##    <chr>                    <int>              <int>    <dbl>    <dbl>     <dbl>
    ##  1 Albuquerque, …             378                146    0.386    0.337     0.438
    ##  2 Atlanta, GA                973                373    0.383    0.353     0.415
    ##  3 Baltimore, MD             2827               1825    0.646    0.628     0.663
    ##  4 Baton Rouge, …             424                196    0.462    0.414     0.511
    ##  5 Birmingham, AL             800                347    0.434    0.399     0.469
    ##  6 Boston, MA                 614                310    0.505    0.465     0.545
    ##  7 Buffalo, NY                521                319    0.612    0.569     0.654
    ##  8 Charlotte, NC              687                206    0.300    0.266     0.336
    ##  9 Chicago, IL               5535               4073    0.736    0.724     0.747
    ## 10 Cincinnati, OH             694                309    0.445    0.408     0.483
    ## # ℹ 41 more rows
…
